\relax 
\providecommand\hyper@newdestlabel[2]{}
\providecommand*\new@tpo@label[2]{}
\bibstyle{apalike}
\providecommand\HyperFirstAtBeginDocument{\AtBeginDocument}
\HyperFirstAtBeginDocument{\ifx\hyper@anchor\@undefined
\global\let\oldcontentsline\contentsline
\gdef\contentsline#1#2#3#4{\oldcontentsline{#1}{#2}{#3}}
\global\let\oldnewlabel\newlabel
\gdef\newlabel#1#2{\newlabelxx{#1}#2}
\gdef\newlabelxx#1#2#3#4#5#6{\oldnewlabel{#1}{{#2}{#3}}}
\AtEndDocument{\ifx\hyper@anchor\@undefined
\let\contentsline\oldcontentsline
\let\newlabel\oldnewlabel
\fi}
\fi}
\global\let\hyper@last\relax 
\gdef\HyperFirstAtBeginDocument#1{#1}
\providecommand\HyField@AuxAddToFields[1]{}
\providecommand\HyField@AuxAddToCoFields[2]{}
\bibstyle{apalike}
\citation{BanhamZo5:online}
\citation{AfricaAl22:online}
\citation{BanhamZo60:online}
\citation{IDCSmart92:online}
\@writefile{toc}{\contentsline {section}{\numberline {1}Introduction}{6}{section.1}}
\@writefile{toc}{\contentsline {section}{\numberline {2}Project Timeline}{6}{section.2}}
\newlabel{secGantt}{{2}{6}{Project Timeline}{section.2}{}}
\citation{PhoneGap17:online}
\citation{MobileAp63:online}
\citation{MobileAp44:online}
\@writefile{toc}{\contentsline {section}{\numberline {3}Approaches}{7}{section.3}}
\@writefile{toc}{\contentsline {subsection}{\numberline {3.1}Frameworks}{7}{subsection.3.1}}
\@writefile{lof}{\contentsline {figure}{\numberline {1}{\ignorespaces Planned timeline \relax }}{8}{figure.caption.5}}
\providecommand*\caption@xref[2]{\@setref\relax\@undefined{#1}}
\newlabel{pplan}{{1}{8}{Planned timeline \relax }{figure.caption.5}{}}
\citation{Dashboar77:online}
\citation{GlobalSm5:online}
\citation{IDCSmart92:online}
\@writefile{toc}{\contentsline {section}{\numberline {4}Review of Technologies}{9}{section.4}}
\citation{ApacheCo6:online}
\citation{Comparin68:online}
\citation{IsAppcel72:online}
\citation{Announci70:online}
\citation{Evolve2064:online}
\@writefile{toc}{\contentsline {section}{\numberline {5}Similar Systems Analysis}{11}{section.5}}
\@writefile{toc}{\contentsline {subsection}{\numberline {5.1}London Zoo}{11}{subsection.5.1}}
\@writefile{lof}{\contentsline {figure}{\numberline {2}{\ignorespaces Home page of London zoo app\relax }}{12}{figure.caption.6}}
\newlabel{fig:London1}{{2}{12}{Home page of London zoo app\relax }{figure.caption.6}{}}
\@writefile{lof}{\contentsline {figure}{\numberline {3}{\ignorespaces Map page of London zoo app\relax }}{13}{figure.caption.7}}
\newlabel{fig:London2}{{3}{13}{Map page of London zoo app\relax }{figure.caption.7}{}}
\@writefile{toc}{\contentsline {subsection}{\numberline {5.2}Marwell Zoo}{13}{subsection.5.2}}
\@writefile{lof}{\contentsline {figure}{\numberline {4}{\ignorespaces Home page of Marwell zoo app\relax }}{14}{figure.caption.8}}
\newlabel{fig:Marwell1}{{4}{14}{Home page of Marwell zoo app\relax }{figure.caption.8}{}}
\@writefile{lof}{\contentsline {figure}{\numberline {5}{\ignorespaces Explore page of Marwell zoo app\relax }}{15}{figure.caption.9}}
\newlabel{fig:Marwell2}{{5}{15}{Explore page of Marwell zoo app\relax }{figure.caption.9}{}}
\@writefile{toc}{\contentsline {subsection}{\numberline {5.3}Africa Alive!}{15}{subsection.5.3}}
\@writefile{lof}{\contentsline {figure}{\numberline {6}{\ignorespaces Home page of Africa Alive app\relax }}{16}{figure.caption.10}}
\newlabel{fig:AA1}{{6}{16}{Home page of Africa Alive app\relax }{figure.caption.10}{}}
\@writefile{lof}{\contentsline {figure}{\numberline {7}{\ignorespaces Guide page of Africa Alive app\relax }}{16}{figure.caption.11}}
\newlabel{fig:AA2}{{7}{16}{Guide page of Africa Alive app\relax }{figure.caption.11}{}}
\@writefile{lof}{\contentsline {figure}{\numberline {8}{\ignorespaces Map page of Africa Alive app\relax }}{17}{figure.caption.12}}
\newlabel{fig:AA3}{{8}{17}{Map page of Africa Alive app\relax }{figure.caption.12}{}}
\@writefile{toc}{\contentsline {subsection}{\numberline {5.4}Colchester Zoo}{17}{subsection.5.4}}
\@writefile{lof}{\contentsline {figure}{\numberline {9}{\ignorespaces Home page of Colchester zoo app\relax }}{18}{figure.caption.13}}
\newlabel{fig:Colchester1}{{9}{18}{Home page of Colchester zoo app\relax }{figure.caption.13}{}}
\@writefile{lof}{\contentsline {figure}{\numberline {10}{\ignorespaces Map page of Colchester zoo app\relax }}{19}{figure.caption.14}}
\newlabel{fig:Colchester2}{{10}{19}{Map page of Colchester zoo app\relax }{figure.caption.14}{}}
\@writefile{toc}{\contentsline {section}{\numberline {6}User Stories}{19}{section.6}}
\@writefile{toc}{\contentsline {subsection}{\numberline {6.1}Breaking down the stories}{20}{subsection.6.1}}
\@writefile{toc}{\contentsline {section}{\numberline {7}Design Stage}{21}{section.7}}
\@writefile{toc}{\contentsline {subsection}{\numberline {7.1}Object Oriented Analysis}{22}{subsection.7.1}}
\@writefile{toc}{\contentsline {subsection}{\numberline {7.2}Object Oriented Design}{22}{subsection.7.2}}
\@writefile{toc}{\contentsline {subsection}{\numberline {7.3}Architectural Design}{22}{subsection.7.3}}
\@writefile{toc}{\contentsline {subsection}{\numberline {7.4}Sequence Diagram}{23}{subsection.7.4}}
\@writefile{toc}{\contentsline {subsection}{\numberline {7.5}State Diagram}{23}{subsection.7.5}}
\@writefile{toc}{\contentsline {section}{\numberline {8}Implementation Stage}{23}{section.8}}
\@writefile{toc}{\contentsline {subsection}{\numberline {8.1}Object Oriented Analysis}{23}{subsection.8.1}}
\@writefile{toc}{\contentsline {subsection}{\numberline {8.2}Object Oriented Design}{24}{subsection.8.2}}
\@writefile{toc}{\contentsline {subsection}{\numberline {8.3}Architectural Design}{24}{subsection.8.3}}
\@writefile{toc}{\contentsline {subsection}{\numberline {8.4}Sequence Diagram}{25}{subsection.8.4}}
\@writefile{toc}{\contentsline {subsection}{\numberline {8.5}State Diagram}{25}{subsection.8.5}}
\@writefile{toc}{\contentsline {section}{\numberline {9}Evaluation}{26}{section.9}}
\@writefile{toc}{\contentsline {subsection}{\numberline {9.1}The App}{26}{subsection.9.1}}
\@writefile{toc}{\contentsline {subsubsection}{\numberline {9.1.1}Home Page}{26}{subsubsection.9.1.1}}
\@writefile{lof}{\contentsline {figure}{\numberline {11}{\ignorespaces Home Page\relax }}{26}{figure.caption.15}}
\newlabel{fig:HomePage}{{11}{26}{Home Page\relax }{figure.caption.15}{}}
\@writefile{toc}{\contentsline {subsubsection}{\numberline {9.1.2}Menu Page}{28}{subsubsection.9.1.2}}
\@writefile{lof}{\contentsline {figure}{\numberline {12}{\ignorespaces Side Menu\relax }}{28}{figure.caption.16}}
\newlabel{fig:MenuScreen}{{12}{28}{Side Menu\relax }{figure.caption.16}{}}
\@writefile{toc}{\contentsline {subsubsection}{\numberline {9.1.3}Categories Page}{29}{subsubsection.9.1.3}}
\@writefile{lof}{\contentsline {figure}{\numberline {13}{\ignorespaces Categories Page\relax }}{29}{figure.caption.17}}
\newlabel{fig:CatPage}{{13}{29}{Categories Page\relax }{figure.caption.17}{}}
\@writefile{toc}{\contentsline {subsubsection}{\numberline {9.1.4}Animals Page}{29}{subsubsection.9.1.4}}
\@writefile{lof}{\contentsline {figure}{\numberline {14}{\ignorespaces Animals Page\relax }}{30}{figure.caption.18}}
\newlabel{fig:AniPage}{{14}{30}{Animals Page\relax }{figure.caption.18}{}}
\citation{GitHubja19:online}
\@writefile{toc}{\contentsline {subsubsection}{\numberline {9.1.5}Trail Page}{31}{subsubsection.9.1.5}}
\newlabel{fig:TrailPage}{{15a}{31}{Trail Page\relax }{figure.caption.19}{}}
\newlabel{sub@fig:TrailPage}{{a}{31}{Trail Page\relax }{figure.caption.19}{}}
\newlabel{fig:TrailPageZoomed}{{15b}{31}{Trail Page when zoomed in\relax }{figure.caption.19}{}}
\newlabel{sub@fig:TrailPageZoomed}{{b}{31}{Trail Page when zoomed in\relax }{figure.caption.19}{}}
\citation{FullScre19:online}
\@writefile{toc}{\contentsline {subsubsection}{\numberline {9.1.6}Animal Page}{32}{subsubsection.9.1.6}}
\newlabel{fig:AnimalFactFile}{{16a}{32}{Animal Page fact file\relax }{figure.caption.20}{}}
\newlabel{sub@fig:AnimalFactFile}{{a}{32}{Animal Page fact file\relax }{figure.caption.20}{}}
\newlabel{fig:AnimalInDepth}{{16b}{32}{Animal Page with in-depth information\relax }{figure.caption.20}{}}
\newlabel{sub@fig:AnimalInDepth}{{b}{32}{Animal Page with in-depth information\relax }{figure.caption.20}{}}
\citation{GitHubja34:online}
\@writefile{toc}{\contentsline {subsubsection}{\numberline {9.1.7}Quizzes Page}{33}{subsubsection.9.1.7}}
\newlabel{fig:QuizzesPage}{{17a}{34}{Quizzes Page\relax }{figure.caption.21}{}}
\newlabel{sub@fig:QuizzesPage}{{a}{34}{Quizzes Page\relax }{figure.caption.21}{}}
\newlabel{fig:QuizzesPageUpdate}{{17b}{34}{Quizzes Page with answered questions\relax }{figure.caption.21}{}}
\newlabel{sub@fig:QuizzesPageUpdate}{{b}{34}{Quizzes Page with answered questions\relax }{figure.caption.21}{}}
\@writefile{toc}{\contentsline {subsubsection}{\numberline {9.1.8}Quiz Page}{34}{subsubsection.9.1.8}}
\@writefile{toc}{\contentsline {subsubsection}{\numberline {9.1.9}Question Page}{34}{subsubsection.9.1.9}}
\newlabel{fig:QuizPage}{{18a}{35}{Quiz Page\relax }{figure.caption.22}{}}
\newlabel{sub@fig:QuizPage}{{a}{35}{Quiz Page\relax }{figure.caption.22}{}}
\newlabel{fig:QuizPageUpdate}{{18b}{35}{Quiz Page with answered questions\relax }{figure.caption.22}{}}
\newlabel{sub@fig:QuizPageUpdate}{{b}{35}{Quiz Page with answered questions\relax }{figure.caption.22}{}}
\@writefile{lof}{\contentsline {figure}{\numberline {19}{\ignorespaces Question Page\relax }}{36}{figure.caption.23}}
\newlabel{fig:QuestionPage}{{19}{36}{Question Page\relax }{figure.caption.23}{}}
\newlabel{fig:QuestionPageCorrect}{{20a}{37}{Question Page when answered correctly\relax }{figure.caption.24}{}}
\newlabel{sub@fig:QuestionPageCorrect}{{a}{37}{Question Page when answered correctly\relax }{figure.caption.24}{}}
\newlabel{fig:QuestionPageWrong}{{20b}{37}{Quiz Page with answered questions\relax }{figure.caption.24}{}}
\newlabel{sub@fig:QuestionPageWrong}{{b}{37}{Quiz Page with answered questions\relax }{figure.caption.24}{}}
\@writefile{toc}{\contentsline {section}{\numberline {10}Conclusion}{37}{section.10}}
\@writefile{toc}{\contentsline {section}{\numberline {11}Figures}{39}{section.11}}
\@writefile{lof}{\contentsline {figure}{\numberline {21}{\ignorespaces Initial Class Diagram\relax }}{40}{figure.caption.25}}
\newlabel{fig:ClassDia}{{21}{40}{Initial Class Diagram\relax }{figure.caption.25}{}}
\@writefile{lof}{\contentsline {figure}{\numberline {22}{\ignorespaces Class Diagram with methods\relax }}{41}{figure.caption.26}}
\newlabel{fig:ClassDia2}{{22}{41}{Class Diagram with methods\relax }{figure.caption.26}{}}
\@writefile{lof}{\contentsline {figure}{\numberline {23}{\ignorespaces Initial Architectural Design\relax }}{42}{figure.caption.27}}
\newlabel{fig:Arch1}{{23}{42}{Initial Architectural Design\relax }{figure.caption.27}{}}
\@writefile{lof}{\contentsline {figure}{\numberline {24}{\ignorespaces Designed state diagram\relax }}{43}{figure.caption.28}}
\newlabel{fig:StateDesign}{{24}{43}{Designed state diagram\relax }{figure.caption.28}{}}
\@writefile{lof}{\contentsline {figure}{\numberline {25}{\ignorespaces Class Diagram of implementation\relax }}{44}{figure.caption.29}}
\newlabel{fig:OOD}{{25}{44}{Class Diagram of implementation\relax }{figure.caption.29}{}}
\@writefile{lof}{\contentsline {figure}{\numberline {26}{\ignorespaces Class Diagram of implementation with methods\relax }}{45}{figure.caption.30}}
\newlabel{fig:OOA}{{26}{45}{Class Diagram of implementation with methods\relax }{figure.caption.30}{}}
\@writefile{lof}{\contentsline {figure}{\numberline {27}{\ignorespaces Architectural Design diagram of finished app\relax }}{46}{figure.caption.31}}
\newlabel{fig:Arch2}{{27}{46}{Architectural Design diagram of finished app\relax }{figure.caption.31}{}}
\@writefile{lof}{\contentsline {figure}{\numberline {28}{\ignorespaces Sequence diagram of navigating to AnimalsPage\relax }}{47}{figure.caption.32}}
\newlabel{fig:AnimalPageSeq}{{28}{47}{Sequence diagram of navigating to AnimalsPage\relax }{figure.caption.32}{}}
\@writefile{lof}{\contentsline {figure}{\numberline {29}{\ignorespaces Sequence diagram of navigating to QuestionPage\relax }}{48}{figure.caption.33}}
\newlabel{fig:QuestionPageSeq}{{29}{48}{Sequence diagram of navigating to QuestionPage\relax }{figure.caption.33}{}}
\@writefile{lof}{\contentsline {figure}{\numberline {30}{\ignorespaces State diagram of final app design\relax }}{49}{figure.caption.34}}
\newlabel{fig:StateMac}{{30}{49}{State diagram of final app design\relax }{figure.caption.34}{}}
\bibdata{final}
\bibcite{AfricaAl22:online}{{1}{2016}{{AA}}{{}}}
\bibcite{ApacheCo6:online}{{2}{2017}{{Apache}}{{}}}
\bibcite{IsAppcel72:online}{{3}{2010}{{APP}}{{}}}
\bibcite{GlobalSm5:online}{{4}{2016}{{BI}}{{}}}
\bibcite{BanhamZo5:online}{{5}{2016}{{BZ}}{{}}}
\bibcite{Comparin68:online}{{6}{2016}{{CI}}{{}}}
\bibcite{Announci70:online}{{7}{2011}{{de~Icaza}}{{}}}
\bibcite{Dashboar77:online}{{8}{2017}{{EDX}}{{}}}
\bibcite{IDCSmart92:online}{{9}{2016}{{IDC}}{{}}}
\bibcite{FullScre19:online}{{10}{2016}{{JAHN}}{{}}}
\bibcite{MobileAp44:online}{{11}{2016}{{MAD}}{{}}}
\@writefile{toc}{\contentsline {section}{References}{50}{section*.35}}
\bibcite{GitHubja34:online}{{12}{2016a}{{Montemagno}}{{}}}
\bibcite{GitHubja19:online}{{13}{2016b}{{Montemagno}}{{}}}
\bibcite{PhoneGap17:online}{{14}{2016}{{PG}}{{}}}
\bibcite{Evolve2064:online}{{15}{2016}{{WTA}}{{}}}
\bibcite{MobileAp63:online}{{16}{2016}{{X}}{{}}}
\bibcite{BanhamZo60:online}{{17}{2016}{{ZSEA}}{{}}}
\newlabel{fig:was:used:in:doc}{{11}{51}{Figures}{section*.35}{}}
\global\@namedef{scr@dte@section@lastmaxnumwidth}{16.32927pt}
\global\@namedef{scr@dte@subsection@lastmaxnumwidth}{19.79993pt}
\global\@namedef{scr@dte@subsubsection@lastmaxnumwidth}{28.79993pt}
